<?xml version="1.0" encoding="utf-8"?>
<!-- Generator: Adobe Illustrator 16.0.0, SVG Export Plug-In . SVG Version: 6.00 Build 0)  -->
<!DOCTYPE svg PUBLIC "-//W3C//DTD SVG 1.1//EN" "http://www.w3.org/Graphics/SVG/1.1/DTD/svg11.dtd">
<svg version="1.1" id="Layer_1" xmlns="http://www.w3.org/2000/svg" xmlns:xlink="http://www.w3.org/1999/xlink" x="0px" y="0px"
	 width="300px" height="200px" viewBox="0 0 300 200" enable-background="new 0 0 300 200" xml:space="preserve">
<g>
	<path fill="#FFFFFF" d="M179.607,112.164c0.02,0.04,0.041,0.079,0.062,0.12c0.501-0.232,1.01-0.452,1.503-0.702
		c1.291-0.651,2.57-1.325,3.863-1.976c1.221-0.615,2.454-1.204,3.674-1.82c1.9-0.959,3.79-1.934,5.688-2.895
		c1.294-0.654,2.599-1.291,3.894-1.944c0.789-0.397,1.563-0.822,2.354-1.217c0.732-0.366,1.485-0.694,2.215-1.065
		c1.536-0.78,3.063-1.576,4.594-2.37c0.858-0.445,1.711-0.903,2.572-1.343c0.526-0.269,1.059-0.455,1.685-0.437
		c1.519,0.044,3.04,0.031,4.56,0.001c0.43-0.008,0.773,0.105,1.11,0.35c1.144,0.828,2.288,1.653,3.446,2.46
		c0.827,0.578,1.682,1.117,2.515,1.688c0.69,0.473,1.368,0.967,2.063,1.461c-0.169,0.664-0.32,1.297-0.498,1.922
		c-0.041,0.146-0.146,0.305-0.269,0.39c-0.343,0.241-0.702,0.462-1.07,0.663c-1.458,0.801-2.929,1.579-4.378,2.395
		c-0.422,0.238-0.84,0.338-1.318,0.328c-1.008-0.021-2.018-0.006-3.059-0.006c-0.076,0.228-0.154,0.42-0.207,0.619
		c-0.141,0.527-0.252,1.064-0.415,1.584c-0.063,0.203-0.196,0.44-0.368,0.543c-1.096,0.662-2.217,1.281-3.316,1.938
		c-0.258,0.154-0.584,0.262-0.698,0.619c0.372-0.088,0.726-0.209,1.06-0.369c0.798-0.381,1.584-0.781,2.377-1.172
		c0.604-0.297,1.183-0.705,1.821-0.854c0.642-0.149,1.343-0.039,2.02-0.039c0.479-0.002,0.959-0.002,1.476-0.002
		c0.131-0.525,0.25-0.989,0.363-1.456c0.076-0.319,0.211-0.569,0.536-0.726c1.098-0.529,2.186-1.078,3.273-1.627
		c0.505-0.256,1.003-0.525,1.501-0.793c0.861-0.459,1.719-0.846,2.754-0.748c0.879,0.082,1.772,0.029,2.658,0.006
		c0.381-0.01,0.691,0.097,1,0.311c1.193,0.821,2.396,1.633,3.602,2.438c1.295,0.865,2.601,1.713,3.898,2.576
		c1.209,0.803,2.404,1.627,3.623,2.417c0.309,0.2,0.611,0.468,1.159,0.493c-0.634-0.492-1.155-0.908-1.69-1.309
		c-1.013-0.756-2.033-1.5-3.047-2.252c-1.117-0.828-2.227-1.664-3.344-2.489c-1.135-0.838-2.271-1.675-3.421-2.491
		c-0.288-0.205-0.377-0.385-0.246-0.735c0.154-0.411,0.247-0.85,0.317-1.285c0.101-0.612,0.38-1.039,0.992-1.252
		c0.271-0.095,0.504-0.301,0.76-0.445c1.838-1.03,3.677-2.055,5.514-3.086c1.34-0.752,2.679-1.504,4.014-2.266
		c0.821-0.469,1.635-0.953,2.45-1.433c0.817-0.48,1.634-0.961,2.446-1.448c0.075-0.045,0.124-0.134,0.186-0.203
		c-0.242-0.019-0.439,0.035-0.621,0.121c-0.531,0.251-1.056,0.518-1.584,0.775c-1.322,0.643-2.649,1.273-3.967,1.925
		c-1.9,0.941-3.794,1.895-5.689,2.846c-1.617,0.812-3.229,1.634-4.854,2.432c-0.332,0.163-0.704,0.321-1.063,0.337
		c-1.076,0.043-2.154,0.028-3.231,0.004c-0.26-0.006-0.559-0.076-0.769-0.221c-1.197-0.819-2.374-1.666-3.555-2.51
		c-0.906-0.648-1.804-1.307-2.709-1.954c-0.787-0.561-1.58-1.114-2.414-1.703c0.2-0.774,0.383-1.527,0.596-2.27
		c0.033-0.115,0.186-0.217,0.305-0.283c0.776-0.419,1.557-0.829,2.339-1.235c1.269-0.661,2.536-1.326,3.816-1.966
		c0.253-0.126,0.557-0.209,0.837-0.21c2.85-0.016,5.7-0.005,8.55-0.022c0.362-0.002,0.657,0.101,0.944,0.29
		c1.474,0.975,2.947,1.95,4.424,2.918c0.083,0.054,0.203,0.051,0.451,0.109c-0.178-0.207-0.241-0.313-0.333-0.381
		c-0.728-0.538-1.464-1.065-2.191-1.603c-0.677-0.501-1.334-1.03-2.025-1.508c-0.386-0.268-0.417-0.555-0.295-0.973
		c0.394-1.348,0.792-2.698,1.106-4.066c0.142-0.616,0.455-1.007,0.969-1.297c0.092-0.051,0.186-0.101,0.277-0.151
		c1.409-0.759,2.816-1.519,4.227-2.274c0.316-0.169,0.645-0.312,0.957-0.488c1.412-0.793,2.814-1.601,4.23-2.388
		c1.287-0.715,2.592-1.398,3.879-2.113c1.324-0.734,2.636-1.493,3.955-2.234c0.973-0.546,1.947-1.086,2.924-1.626
		c1.545-0.856,3.097-1.703,4.638-2.567c1.267-0.71,2.519-1.447,3.782-2.16c1.301-0.734,2.609-1.454,3.914-2.179
		c0.881-0.491,1.765-0.979,2.641-1.478c0.652-0.372,1.295-0.759,1.941-1.14c-0.019-0.042-0.037-0.084-0.057-0.125
		c-0.266,0.105-0.543,0.193-0.799,0.322c-1.326,0.675-2.642,1.371-3.972,2.039c-1.278,0.642-2.571,1.256-3.858,1.883
		c-0.567,0.276-1.141,0.54-1.702,0.828c-1.386,0.713-2.76,1.447-4.148,2.154c-1.407,0.716-2.831,1.4-4.238,2.115
		c-1.628,0.827-3.243,1.677-4.87,2.508c-0.992,0.508-1.994,0.995-2.989,1.499c-1.441,0.729-2.882,1.458-4.318,2.199
		c-1.718,0.885-3.431,1.781-5.147,2.672c-0.821,0.427-1.635,0.873-2.471,1.272c-0.521,0.249-0.992,0.599-1.639,0.592
		c-2.742-0.027-5.484-0.014-8.229-0.007c-0.311,0.001-0.564-0.08-0.815-0.268c-1.023-0.77-2.052-1.534-3.093-2.281
		c-1.484-1.067-2.979-2.122-4.474-3.175c-0.929-0.655-1.868-1.295-2.802-1.946c-1.313-0.914-2.613-1.843-3.934-2.744
		c-1.879-1.28-3.774-2.537-5.658-3.81c-1.273-0.861-2.531-1.745-3.812-2.595c-1.946-1.294-3.906-2.566-5.857-3.853
		c-1.16-0.764-2.313-1.539-3.472-2.306c-0.078-0.052-0.174-0.08-0.261-0.119c0.044,0.193,0.132,0.327,0.253,0.42
		c0.78,0.607,1.564,1.212,2.356,1.804c0.81,0.605,1.634,1.191,2.444,1.793c1.3,0.967,2.589,1.949,3.891,2.91
		c1.457,1.076,2.92,2.141,4.385,3.205c1.432,1.04,2.867,2.075,4.305,3.105c0.582,0.417,1.181,0.812,1.764,1.229
		c0.888,0.636,1.766,1.286,2.654,1.921c0.6,0.429,1.213,0.838,1.815,1.263c0.911,0.645,1.813,1.303,2.727,1.943
		c0.671,0.471,1.356,0.924,2.034,1.386c0.99,0.676,1.98,1.354,2.973,2.029c0.412,0.28,0.828,0.556,1.234,0.83
		c-0.42,1.642-0.838,3.206-1.209,4.781c-0.089,0.375-0.282,0.588-0.59,0.754c-1.182,0.638-2.363,1.279-3.543,1.918
		c-0.535,0.29-1.086,0.555-1.599,0.88c-0.5,0.316-1.011,0.46-1.606,0.433c-0.841-0.039-1.687-0.037-2.527,0.005
		c-1.039,0.052-1.93-0.122-2.8-0.824c-1.174-0.946-2.517-1.681-3.774-2.523c-1.172-0.785-2.322-1.6-3.49-2.39
		c-1.55-1.047-3.104-2.088-4.664-3.119c-1.211-0.801-2.436-1.582-3.658-2.367c-0.131-0.084-0.279-0.139-0.42-0.208
		c-0.025,0.041-0.051,0.082-0.075,0.123c5.149,3.95,10.417,7.741,15.663,11.62c-0.322,1.21-0.643,2.387-0.945,3.568
		c-0.066,0.257-0.234,0.372-0.447,0.482c-0.729,0.377-1.459,0.757-2.178,1.156c-1.229,0.684-2.445,1.387-3.673,2.074
		c-0.974,0.547-1.954,1.079-2.933,1.618c-1.568,0.864-3.141,1.718-4.701,2.594c-1.246,0.699-2.469,1.437-3.714,2.136
		c-1.411,0.791-2.841,1.553-4.256,2.34c-1.377,0.766-2.745,1.547-4.116,2.322c-1.078,0.61-2.155,1.22-3.23,1.834
		C179.858,111.966,179.736,112.071,179.607,112.164z"/>
	<path fill="#FFFFFF" d="M93.618,122.323c0.037,0.236,0.056,0.443,0.104,0.641c0.401,1.627,0.809,3.254,1.212,4.881
		c0.511,2.055,1.024,4.107,1.525,6.164c0.313,1.281,0.596,2.568,0.907,3.85c0.197,0.814,0.441,1.617,0.626,2.434
		c0.08,0.352,0.269,0.42,0.582,0.418c1.349-0.007,2.697-0.004,4.045,0.008c0.302,0.002,0.476-0.12,0.553-0.405
		c0.099-0.365,0.196-0.73,0.306-1.091c0.423-1.402,0.85-2.803,1.278-4.203c0.54-1.76,1.081-3.521,1.627-5.28
		c0.016-0.05,0.084-0.082,0.138-0.131c0.377,1.274,0.764,2.524,1.114,3.784c0.641,2.299,1.263,4.603,1.883,6.906
		c0.08,0.294,0.236,0.417,0.536,0.416c1.391-0.008,2.78-0.009,4.171-0.002c0.298,0.001,0.455-0.1,0.532-0.408
		c0.258-1.035,0.555-2.061,0.819-3.094c0.218-0.852,0.405-1.712,0.615-2.565c0.581-2.36,1.16-4.724,1.754-7.082
		c0.228-0.908,0.503-1.804,0.736-2.71c0.213-0.824,0.397-1.655,0.606-2.538c-1.26,0-2.452,0-3.727,0
		c-1.094,4.487-2.069,9-3.177,13.498c-0.154-0.26-0.275-0.519-0.353-0.79c-0.513-1.817-1.01-3.637-1.523-5.453
		c-0.649-2.296-1.313-4.587-1.958-6.885c-0.063-0.227-0.118-0.408-0.385-0.408c-0.946-0.003-1.891-0.002-2.837-0.002
		c-0.275,0.888-0.52,1.709-0.783,2.524c-0.703,2.171-1.421,4.339-2.12,6.513c-0.399,1.238-0.771,2.486-1.163,3.728
		c-0.084,0.265-0.203,0.519-0.306,0.778c-0.043-0.009-0.086-0.018-0.13-0.027c-0.166-0.813-0.324-1.627-0.502-2.438
		c-0.3-1.365-0.622-2.727-0.918-4.092c-0.467-2.151-0.919-4.306-1.381-6.457c-0.112-0.522-0.119-0.528-0.648-0.531
		c-1.098-0.006-2.196-0.004-3.294,0.001C93.94,122.274,93.798,122.304,93.618,122.323z"/>
	<path fill="#FFFFFF" d="M156.668,125.315c1.57,0,3.048-0.027,4.523,0.011c0.76,0.021,1.477,0.276,2.148,0.651
		c1.009,0.564,1.466,1.677,1.322,2.467c-0.19,1.064-0.882,1.744-1.84,2.15c-0.93,0.395-1.924,0.437-2.92,0.422
		c-0.438-0.006-0.874,0-1.408,0c0.136,0.26,0.205,0.431,0.305,0.582c0.38,0.578,0.779,1.141,1.15,1.725
		c1.455,2.286,2.903,4.576,4.347,6.869c0.235,0.375,0.522,0.543,0.985,0.533c1.285-0.029,2.57-0.008,3.855-0.011
		c0.115,0,0.229-0.038,0.43-0.073c-0.848-1.262-1.695-2.432-2.443-3.664c-0.75-1.232-1.717-2.33-2.356-3.66
		c0.23-0.087,0.403-0.157,0.578-0.219c1.083-0.373,2.024-0.976,2.687-1.908c0.811-1.143,1.047-2.434,0.86-3.84
		c-0.205-1.549-0.987-2.731-2.213-3.594c-1.407-0.991-3.05-1.434-4.749-1.469c-2.977-0.063-5.955-0.018-8.932-0.016
		c-0.183,0.001-0.365,0.029-0.534,0.045c-0.128,0.859-0.093,17.867,0.048,18.375c1.357,0.01,2.73,0.063,4.156-0.023
		C156.668,135.521,156.668,130.46,156.668,125.315z"/>
	<path fill="#FFFFFF" d="M25.738,137.489c0.335,0.432,0.591,0.837,1.008,1.106c0.599,0.388,1.194,0.777,1.795,1.161
		c1.317,0.84,2.818,1.084,4.324,1.254c1.042,0.119,2.092,0.125,3.148,0.031c1.747-0.154,3.385-0.56,4.859-1.572
		c0.816-0.56,1.433-1.295,1.788-2.157c0.662-1.609,0.621-3.208-0.405-4.733c-0.778-1.156-1.886-1.831-3.099-2.377
		c-1.335-0.604-2.798-0.719-4.208-1.033c-0.794-0.178-1.595-0.342-2.369-0.586c-0.431-0.136-0.852-0.376-1.209-0.656
		c-0.56-0.439-0.625-1.367-0.169-1.871c0.296-0.325,0.631-0.61,1.074-0.746c1.392-0.424,2.796-0.387,4.178-0.025
		c1.356,0.354,2.449,1.158,3.358,2.305c0.978-0.75,1.947-1.493,2.979-2.285c-0.549-0.531-0.986-1.061-1.522-1.451
		c-1.094-0.797-2.308-1.38-3.629-1.709c-1.76-0.437-3.541-0.481-5.335-0.248c-1.314,0.17-2.531,0.592-3.627,1.344
		c-1.432,0.984-2.032,2.416-2.123,4.086c-0.045,0.833,0.24,1.625,0.609,2.354c0.232,0.46,0.542,0.938,0.943,1.241
		c0.664,0.502,1.398,0.938,2.157,1.279c1.33,0.594,2.787,0.737,4.201,1.021c1.092,0.219,2.171,0.469,3.167,0.992
		c1.032,0.542,1.262,1.515,0.614,2.479c-0.359,0.534-0.902,0.754-1.465,0.913c-1.365,0.385-2.751,0.351-4.126,0.055
		c-0.911-0.196-1.785-0.495-2.495-1.146c-0.487-0.449-0.988-0.883-1.515-1.351C27.722,135.903,26.769,136.665,25.738,137.489z"/>
	<path fill="#FFFFFF" d="M215.834,125.364c-0.661-0.798-1.305-1.491-2.125-1.961c-1.415-0.809-2.903-1.407-4.562-1.544
		c-2.274-0.187-4.487-0.14-6.591,0.929c-1.373,0.697-2.346,1.688-2.707,3.199c-0.38,1.59-0.186,3.11,0.855,4.415
		c0.766,0.96,1.835,1.529,2.979,1.933c1.468,0.516,3.01,0.725,4.531,1.012c0.829,0.156,1.619,0.439,2.382,0.773
		c0.586,0.256,1.058,0.673,1.083,1.424c0.023,0.786-0.329,1.357-0.973,1.717c-0.413,0.232-0.897,0.365-1.367,0.464
		c-1.105,0.232-2.227,0.204-3.331-0.012c-0.995-0.194-1.966-0.479-2.745-1.196c-0.486-0.449-0.986-0.883-1.518-1.357
		c-0.943,0.756-1.918,1.537-2.901,2.326c0.956,1.367,2.284,2.141,3.698,2.729c1.854,0.77,3.828,0.967,5.824,0.875
		c1.842-0.086,3.598-0.418,5.242-1.379c2.434-1.42,3.17-4.441,1.979-6.752c-0.778-1.508-2.173-2.298-3.68-2.895
		c-1.256-0.498-2.605-0.621-3.916-0.898c-0.777-0.164-1.551-0.35-2.313-0.573c-0.357-0.104-0.73-0.265-1.012-0.5
		c-0.789-0.662-1.016-1.395-0.162-2.229c0.359-0.354,0.771-0.594,1.26-0.669c0.539-0.083,1.085-0.142,1.63-0.159
		c1.517-0.051,2.933,0.291,4.151,1.234c0.49,0.38,0.927,0.832,1.406,1.27C213.887,126.835,214.836,126.118,215.834,125.364z"/>
	<path fill="#FFFFFF" d="M85.305,122.317c-0.569,0.865-1.126,1.703-1.674,2.546c-0.538,0.83-1.038,1.686-1.605,2.495
		c-0.575,0.818-0.968,1.765-1.668,2.505c-0.544-0.831-1.072-1.615-1.578-2.413c-0.854-1.35-1.693-2.709-2.542-4.063
		c-0.168-0.268-0.374-0.514-0.515-0.793c-0.14-0.276-0.347-0.328-0.619-0.326c-1.353,0.006-2.704,0-4.056,0.008
		c-0.128,0-0.256,0.061-0.426,0.104c0.095,0.146,0.148,0.233,0.206,0.319c0.694,1.022,1.392,2.044,2.083,3.07
		c0.397,0.591,0.779,1.194,1.183,1.783c0.641,0.937,1.296,1.863,1.938,2.797c0.484,0.709,0.94,1.437,1.439,2.135
		c0.399,0.559,0.653,1.115,0.632,1.847c-0.055,1.878-0.02,3.759-0.017,5.638c0,0.225,0.021,0.449,0.034,0.726
		c1.417,0.007,2.771,0.054,4.183-0.024c0-0.289,0-0.496,0-0.703c-0.001-2.027,0.002-4.054-0.008-6.08
		c-0.002-0.33,0.067-0.606,0.257-0.885c0.686-1.008,1.342-2.035,2.018-3.049c0.849-1.274,1.711-2.539,2.558-3.814
		c0.745-1.121,1.478-2.252,2.212-3.381c0.074-0.115,0.119-0.25,0.209-0.441C88.096,122.317,86.714,122.317,85.305,122.317z"/>
	<path fill="#FFFFFF" d="M182.377,130.993c0.352,0.479,0.656,0.933,1.002,1.354c0.689,0.845,1.413,1.663,2.104,2.509
		c0.678,0.831,1.331,1.684,1.998,2.525c0.705,0.891,1.409,1.782,2.122,2.667c0.337,0.417,0.702,0.706,1.321,0.679
		c1.219-0.055,2.443-0.004,3.664-0.006c0.154,0,0.31-0.049,0.562-0.092c-2.659-3.287-5.259-6.501-7.896-9.762
		c0.609-0.729,1.199-1.434,1.79-2.138c0.595-0.708,1.187-1.418,1.784-2.124c0.599-0.705,1.223-1.391,1.797-2.115
		c0.563-0.709,1.238-1.334,1.783-2.217c-1.613,0-3.088-0.004-4.563,0.01c-0.119,0-0.269,0.102-0.352,0.199
		c-1.061,1.252-2.112,2.511-3.165,3.77c-0.822,0.982-1.643,1.968-2.463,2.952C183.369,129.8,182.875,130.396,182.377,130.993z"/>
	<path fill="#FFFFFF" d="M67.571,122.447c-0.03-0.058-0.061-0.115-0.091-0.173c-1.475,0-2.95-0.003-4.425,0.007
		c-0.107,0.001-0.243,0.073-0.316,0.155c-0.461,0.518-0.913,1.043-1.356,1.574c-1.67,2.002-3.337,4.006-5.001,6.012
		c-0.265,0.319-0.503,0.66-0.751,0.988c0.112,0.172,0.184,0.302,0.274,0.416c0.653,0.821,1.305,1.646,1.97,2.458
		c0.746,0.91,1.518,1.8,2.256,2.716c0.975,1.212,1.931,2.439,2.888,3.666c0.253,0.323,0.554,0.464,0.976,0.455
		c1.285-0.025,2.57-0.014,3.855-0.021c0.136,0,0.271-0.029,0.527-0.059c-2.672-3.307-5.276-6.531-7.897-9.775
		C62.87,128.029,65.221,125.237,67.571,122.447z"/>
	<path fill="#FFFFFF" d="M49.901,122.308c-0.141,0.771-0.105,17.914,0.046,18.399c1.341-0.019,2.697,0.056,4.037-0.04
		c0.144-1.239,0.079-17.906-0.063-18.359C52.581,122.308,51.238,122.308,49.901,122.308z"/>
	<path fill="#FFFFFF" d="M180.746,122.317c-1.412,0-2.771,0-4.145,0c0,6.133,0,12.221,0,18.355c1.396,0,2.752,0,4.145,0
		C180.746,134.549,180.746,128.46,180.746,122.317z"/>
	<path fill="#FFFFFF" d="M179.607,112.164c0.129-0.093,0.251-0.198,0.389-0.276c1.075-0.614,2.152-1.224,3.23-1.834
		c1.371-0.775,2.739-1.557,4.116-2.322c1.415-0.787,2.845-1.549,4.256-2.34c1.245-0.699,2.468-1.437,3.714-2.136
		c1.561-0.876,3.133-1.729,4.701-2.594c0.979-0.539,1.959-1.071,2.933-1.618c1.228-0.687,2.444-1.39,3.673-2.074
		c0.719-0.399,1.448-0.778,2.178-1.156c0.213-0.11,0.381-0.225,0.447-0.482c0.303-1.181,0.623-2.358,0.945-3.568
		c-5.246-3.878-10.514-7.669-15.663-11.62c0.024-0.041,0.05-0.082,0.075-0.123c0.141,0.068,0.289,0.124,0.42,0.208
		c1.223,0.785,2.447,1.566,3.658,2.367c1.561,1.031,3.114,2.072,4.664,3.119c1.168,0.79,2.318,1.604,3.49,2.39
		c1.258,0.843,2.601,1.578,3.774,2.523c0.87,0.702,1.761,0.875,2.8,0.824c0.841-0.042,1.687-0.044,2.527-0.005
		c0.596,0.027,1.106-0.116,1.606-0.433c0.513-0.325,1.063-0.591,1.599-0.88c1.18-0.64,2.361-1.28,3.543-1.918
		c0.308-0.166,0.501-0.379,0.59-0.754c0.371-1.575,0.789-3.139,1.209-4.781c-0.406-0.273-0.822-0.549-1.234-0.83
		c-0.992-0.675-1.982-1.353-2.973-2.029c-0.678-0.462-1.363-0.915-2.034-1.386c-0.913-0.641-1.815-1.299-2.727-1.943
		c-0.603-0.425-1.216-0.834-1.815-1.263c-0.889-0.635-1.767-1.286-2.654-1.921c-0.583-0.417-1.182-0.813-1.764-1.229
		c-1.438-1.031-2.873-2.066-4.305-3.105c-1.465-1.064-2.928-2.129-4.385-3.205c-1.302-0.961-2.591-1.943-3.891-2.91
		c-0.811-0.603-1.635-1.188-2.444-1.793c-0.792-0.592-1.576-1.196-2.356-1.804c-0.121-0.093-0.209-0.227-0.253-0.42
		c0.087,0.039,0.183,0.066,0.261,0.119c1.158,0.768,2.312,1.542,3.472,2.306c1.951,1.287,3.911,2.559,5.857,3.853
		c1.28,0.85,2.538,1.734,3.812,2.595c1.884,1.273,3.779,2.53,5.658,3.81c1.32,0.901,2.621,1.83,3.934,2.744
		c0.934,0.65,1.873,1.291,2.802,1.946c1.495,1.053,2.989,2.108,4.474,3.175c1.041,0.748,2.069,1.511,3.093,2.281
		c0.251,0.188,0.505,0.27,0.815,0.268c2.744-0.007,5.486-0.021,8.229,0.007c0.646,0.007,1.117-0.343,1.639-0.592
		c0.836-0.399,1.649-0.845,2.471-1.272c1.717-0.892,3.43-1.788,5.147-2.672c1.437-0.74,2.877-1.469,4.318-2.199
		c0.995-0.504,1.997-0.991,2.989-1.499c1.627-0.832,3.242-1.681,4.87-2.508c1.407-0.715,2.831-1.399,4.238-2.115
		c1.389-0.708,2.763-1.441,4.148-2.154c0.562-0.289,1.135-0.552,1.702-0.828c1.287-0.626,2.58-1.241,3.858-1.883
		c1.33-0.668,2.646-1.364,3.972-2.039c0.256-0.129,0.533-0.216,0.799-0.322c0.02,0.042,0.038,0.084,0.057,0.125
		c-0.646,0.381-1.289,0.769-1.941,1.14c-0.876,0.499-1.76,0.987-2.641,1.478c-1.305,0.726-2.613,1.445-3.914,2.179
		c-1.264,0.713-2.516,1.45-3.782,2.16c-1.541,0.865-3.093,1.711-4.638,2.567c-0.977,0.54-1.951,1.08-2.924,1.626
		c-1.319,0.742-2.631,1.5-3.955,2.234c-1.287,0.715-2.592,1.398-3.879,2.113c-1.416,0.787-2.818,1.595-4.23,2.388
		c-0.313,0.176-0.641,0.319-0.957,0.488c-1.41,0.755-2.817,1.516-4.227,2.274c-0.092,0.05-0.186,0.1-0.277,0.151
		c-0.514,0.29-0.827,0.681-0.969,1.297c-0.314,1.368-0.713,2.718-1.106,4.066c-0.122,0.418-0.091,0.706,0.295,0.973
		c0.691,0.478,1.349,1.007,2.025,1.508c0.728,0.538,1.464,1.065,2.191,1.603c0.092,0.068,0.155,0.175,0.333,0.381
		c-0.248-0.058-0.368-0.055-0.451-0.109c-1.477-0.968-2.95-1.943-4.424-2.918c-0.287-0.189-0.582-0.292-0.944-0.29
		c-2.85,0.017-5.7,0.006-8.55,0.022c-0.28,0.001-0.584,0.084-0.837,0.21c-1.28,0.641-2.548,1.306-3.816,1.966
		c-0.782,0.406-1.563,0.816-2.339,1.235c-0.119,0.065-0.271,0.167-0.305,0.283c-0.213,0.743-0.396,1.495-0.596,2.27
		c0.834,0.588,1.627,1.142,2.414,1.703c0.905,0.647,1.803,1.306,2.709,1.954c1.181,0.844,2.357,1.69,3.555,2.51
		c0.21,0.145,0.509,0.215,0.769,0.221c1.077,0.024,2.155,0.039,3.231-0.004c0.358-0.016,0.73-0.174,1.063-0.337
		c1.624-0.798,3.236-1.62,4.854-2.432c1.896-0.951,3.789-1.905,5.689-2.846c1.317-0.652,2.645-1.282,3.967-1.925
		c0.528-0.257,1.053-0.523,1.584-0.775c0.182-0.086,0.379-0.14,0.621-0.121c-0.062,0.069-0.11,0.158-0.186,0.203
		c-0.813,0.487-1.629,0.968-2.446,1.448c-0.815,0.48-1.629,0.964-2.45,1.433c-1.335,0.762-2.674,1.514-4.014,2.266
		c-1.837,1.031-3.676,2.056-5.514,3.086c-0.256,0.145-0.488,0.351-0.76,0.445c-0.612,0.213-0.892,0.64-0.992,1.252
		c-0.07,0.436-0.163,0.874-0.317,1.285c-0.131,0.351-0.042,0.53,0.246,0.735c1.149,0.816,2.286,1.653,3.421,2.491
		c1.117,0.825,2.227,1.661,3.344,2.489c1.014,0.752,2.034,1.496,3.047,2.252c0.535,0.4,1.057,0.816,1.69,1.309
		c-0.548-0.025-0.851-0.293-1.159-0.493c-1.219-0.79-2.414-1.614-3.623-2.417c-1.298-0.863-2.604-1.711-3.898-2.576
		c-1.206-0.805-2.408-1.616-3.602-2.438c-0.309-0.214-0.619-0.32-1-0.311c-0.886,0.023-1.779,0.076-2.658-0.006
		c-1.035-0.098-1.893,0.289-2.754,0.748c-0.498,0.268-0.996,0.537-1.501,0.793c-1.088,0.549-2.176,1.098-3.273,1.627
		c-0.325,0.156-0.46,0.406-0.536,0.726c-0.113,0.467-0.232,0.931-0.363,1.456c-0.517,0-0.996,0-1.476,0.002
		c-0.677,0-1.378-0.11-2.02,0.039c-0.639,0.148-1.218,0.557-1.821,0.854c-0.793,0.391-1.579,0.791-2.377,1.172
		c-0.334,0.16-0.688,0.281-1.06,0.369c0.114-0.357,0.44-0.465,0.698-0.619c1.1-0.656,2.221-1.275,3.316-1.938
		c0.172-0.103,0.305-0.34,0.368-0.543c0.163-0.52,0.274-1.057,0.415-1.584c0.053-0.199,0.131-0.392,0.207-0.619
		c1.041,0,2.051-0.016,3.059,0.006c0.479,0.01,0.896-0.09,1.318-0.328c1.449-0.815,2.92-1.594,4.378-2.395
		c0.368-0.201,0.728-0.422,1.07-0.663c0.122-0.085,0.228-0.243,0.269-0.39c0.178-0.625,0.329-1.258,0.498-1.922
		c-0.695-0.494-1.373-0.988-2.063-1.461c-0.833-0.571-1.688-1.11-2.515-1.688c-1.158-0.807-2.303-1.633-3.446-2.46
		c-0.337-0.245-0.681-0.358-1.11-0.35c-1.52,0.029-3.041,0.042-4.56-0.001c-0.626-0.018-1.158,0.168-1.685,0.437
		c-0.861,0.439-1.714,0.897-2.572,1.343c-1.53,0.793-3.058,1.589-4.594,2.37c-0.729,0.371-1.482,0.699-2.215,1.065
		c-0.79,0.395-1.564,0.819-2.354,1.217c-1.295,0.653-2.6,1.29-3.894,1.944c-1.898,0.961-3.788,1.936-5.688,2.895
		c-1.22,0.616-2.453,1.205-3.674,1.82c-1.293,0.65-2.572,1.324-3.863,1.976c-0.493,0.25-1.002,0.47-1.503,0.702
		C179.648,112.243,179.627,112.204,179.607,112.164z"/>
	<path fill="#FFFFFF" d="M93.618,122.323c0.18-0.02,0.322-0.049,0.466-0.05c1.098-0.005,2.196-0.007,3.294-0.001
		c0.529,0.003,0.536,0.009,0.648,0.531c0.462,2.151,0.914,4.306,1.381,6.457c0.296,1.365,0.618,2.727,0.918,4.092
		c0.178,0.811,0.336,1.625,0.502,2.438c0.044,0.01,0.087,0.019,0.13,0.027c0.103-0.26,0.222-0.514,0.306-0.778
		c0.392-1.241,0.764-2.489,1.163-3.728c0.699-2.174,1.417-4.342,2.12-6.513c0.264-0.815,0.508-1.637,0.783-2.524
		c0.946,0,1.891-0.001,2.837,0.002c0.267,0,0.321,0.182,0.385,0.408c0.645,2.298,1.309,4.589,1.958,6.885
		c0.514,1.816,1.011,3.636,1.523,5.453c0.077,0.271,0.198,0.53,0.353,0.79c1.107-4.498,2.083-9.011,3.177-13.498
		c1.274,0,2.467,0,3.727,0c-0.209,0.883-0.394,1.714-0.606,2.538c-0.233,0.906-0.509,1.802-0.736,2.71
		c-0.594,2.358-1.173,4.722-1.754,7.082c-0.21,0.854-0.397,1.714-0.615,2.565c-0.265,1.033-0.562,2.059-0.819,3.094
		c-0.077,0.309-0.234,0.409-0.532,0.408c-1.391-0.007-2.78-0.006-4.171,0.002c-0.3,0.001-0.456-0.122-0.536-0.416
		c-0.62-2.304-1.242-4.607-1.883-6.906c-0.351-1.26-0.737-2.51-1.114-3.784c-0.054,0.049-0.122,0.081-0.138,0.131
		c-0.546,1.759-1.087,3.521-1.627,5.28c-0.429,1.4-0.855,2.801-1.278,4.203c-0.109,0.36-0.207,0.726-0.306,1.091
		c-0.077,0.285-0.251,0.407-0.553,0.405c-1.348-0.012-2.696-0.015-4.045-0.008c-0.313,0.002-0.502-0.066-0.582-0.418
		c-0.185-0.816-0.429-1.619-0.626-2.434c-0.312-1.281-0.595-2.568-0.907-3.85c-0.501-2.057-1.015-4.109-1.525-6.164
		c-0.403-1.627-0.811-3.254-1.212-4.881C93.674,122.767,93.655,122.56,93.618,122.323z"/>
	<path fill="#FFFFFF" d="M156.668,125.315c0,5.145,0,10.205,0,15.354c-1.426,0.086-2.799,0.033-4.156,0.023
		c-0.141-0.508-0.176-17.516-0.048-18.375c0.169-0.016,0.352-0.044,0.534-0.045c2.977-0.002,5.955-0.047,8.932,0.016
		c1.699,0.035,3.342,0.478,4.749,1.469c1.226,0.862,2.008,2.045,2.213,3.594c0.187,1.406-0.05,2.697-0.86,3.84
		c-0.662,0.933-1.604,1.535-2.687,1.908c-0.175,0.062-0.348,0.132-0.578,0.219c0.64,1.33,1.606,2.428,2.356,3.66
		c0.748,1.232,1.596,2.402,2.443,3.664c-0.2,0.035-0.314,0.073-0.43,0.073c-1.285,0.003-2.57-0.019-3.855,0.011
		c-0.463,0.01-0.75-0.158-0.985-0.533c-1.443-2.293-2.892-4.583-4.347-6.869c-0.371-0.584-0.771-1.146-1.15-1.725
		c-0.1-0.151-0.169-0.322-0.305-0.582c0.534,0,0.971-0.006,1.408,0c0.996,0.015,1.99-0.027,2.92-0.422
		c0.958-0.406,1.649-1.086,1.84-2.15c0.144-0.79-0.313-1.902-1.322-2.467c-0.672-0.375-1.389-0.631-2.148-0.651
		C159.716,125.288,158.238,125.315,156.668,125.315z"/>
	<path fill="#FFFFFF" d="M25.738,137.489c1.03-0.824,1.983-1.586,2.909-2.327c0.526,0.468,1.027,0.901,1.515,1.351
		c0.71,0.651,1.584,0.95,2.495,1.146c1.375,0.296,2.761,0.33,4.126-0.055c0.563-0.159,1.105-0.379,1.465-0.913
		c0.647-0.964,0.418-1.937-0.614-2.479c-0.996-0.523-2.075-0.773-3.167-0.992c-1.414-0.283-2.871-0.427-4.201-1.021
		c-0.759-0.342-1.493-0.777-2.157-1.279c-0.401-0.303-0.711-0.781-0.943-1.241c-0.369-0.729-0.654-1.521-0.609-2.354
		c0.091-1.67,0.691-3.102,2.123-4.086c1.096-0.752,2.313-1.174,3.627-1.344c1.794-0.233,3.575-0.188,5.335,0.248
		c1.321,0.329,2.535,0.912,3.629,1.709c0.536,0.391,0.974,0.92,1.522,1.451c-1.032,0.792-2.002,1.535-2.979,2.285
		c-0.909-1.146-2.002-1.951-3.358-2.305c-1.382-0.361-2.786-0.398-4.178,0.025c-0.443,0.136-0.778,0.421-1.074,0.746
		c-0.456,0.504-0.391,1.432,0.169,1.871c0.357,0.28,0.778,0.521,1.209,0.656c0.774,0.244,1.575,0.408,2.369,0.586
		c1.41,0.314,2.873,0.43,4.208,1.033c1.213,0.546,2.32,1.221,3.099,2.377c1.026,1.525,1.067,3.124,0.405,4.733
		c-0.355,0.862-0.972,1.598-1.788,2.157c-1.475,1.013-3.112,1.418-4.859,1.572c-1.057,0.094-2.106,0.088-3.148-0.031
		c-1.506-0.17-3.007-0.414-4.324-1.254c-0.601-0.384-1.196-0.773-1.795-1.161C26.329,138.326,26.073,137.921,25.738,137.489z"/>
	<path fill="#FFFFFF" d="M215.834,125.364c-0.998,0.754-1.947,1.471-2.881,2.174c-0.479-0.438-0.916-0.89-1.406-1.27
		c-1.219-0.943-2.635-1.285-4.151-1.234c-0.545,0.018-1.091,0.076-1.63,0.159c-0.488,0.075-0.9,0.315-1.26,0.669
		c-0.854,0.835-0.627,1.567,0.162,2.229c0.281,0.235,0.654,0.396,1.012,0.5c0.762,0.224,1.535,0.409,2.313,0.573
		c1.311,0.277,2.66,0.4,3.916,0.898c1.507,0.597,2.901,1.387,3.68,2.895c1.191,2.311,0.455,5.332-1.979,6.752
		c-1.645,0.961-3.4,1.293-5.242,1.379c-1.996,0.092-3.971-0.105-5.824-0.875c-1.414-0.588-2.742-1.361-3.698-2.729
		c0.983-0.789,1.958-1.57,2.901-2.326c0.531,0.475,1.031,0.908,1.518,1.357c0.779,0.717,1.75,1.002,2.745,1.196
		c1.104,0.216,2.226,0.244,3.331,0.012c0.47-0.099,0.954-0.231,1.367-0.464c0.644-0.359,0.996-0.931,0.973-1.717
		c-0.025-0.751-0.497-1.168-1.083-1.424c-0.763-0.334-1.553-0.617-2.382-0.773c-1.521-0.287-3.063-0.496-4.531-1.012
		c-1.144-0.403-2.213-0.973-2.979-1.933c-1.041-1.305-1.235-2.825-0.855-4.415c0.361-1.512,1.334-2.502,2.707-3.199
		c2.104-1.068,4.316-1.115,6.591-0.929c1.658,0.137,3.146,0.735,4.562,1.544C214.529,123.873,215.173,124.566,215.834,125.364z"/>
	<path fill="#FFFFFF" d="M85.305,122.317c1.409,0,2.791,0,4.244,0c-0.09,0.191-0.135,0.326-0.209,0.441
		c-0.734,1.129-1.467,2.26-2.212,3.381c-0.847,1.275-1.709,2.54-2.558,3.814c-0.676,1.014-1.332,2.041-2.018,3.049
		c-0.189,0.278-0.259,0.555-0.257,0.885c0.01,2.026,0.007,4.053,0.008,6.08c0,0.207,0,0.414,0,0.703
		c-1.411,0.078-2.766,0.031-4.183,0.024c-0.014-0.276-0.034-0.501-0.034-0.726c-0.003-1.879-0.038-3.76,0.017-5.638
		c0.021-0.731-0.232-1.288-0.632-1.847c-0.499-0.698-0.955-1.426-1.439-2.135c-0.643-0.934-1.298-1.86-1.938-2.797
		c-0.403-0.589-0.785-1.192-1.183-1.783c-0.691-1.026-1.389-2.048-2.083-3.07c-0.058-0.086-0.111-0.174-0.206-0.319
		c0.17-0.044,0.298-0.104,0.426-0.104c1.352-0.008,2.703-0.002,4.056-0.008c0.272-0.002,0.479,0.05,0.619,0.326
		c0.141,0.279,0.347,0.525,0.515,0.793c0.849,1.354,1.688,2.713,2.542,4.063c0.506,0.798,1.034,1.582,1.578,2.413
		c0.7-0.74,1.093-1.687,1.668-2.505c0.567-0.81,1.067-1.665,1.605-2.495C84.179,124.021,84.735,123.183,85.305,122.317z"/>
	<path fill="#FFFFFF" d="M182.377,130.993c0.498-0.598,0.992-1.193,1.488-1.788c0.82-0.984,1.641-1.97,2.463-2.952
		c1.053-1.259,2.104-2.518,3.165-3.77c0.083-0.098,0.232-0.199,0.352-0.199c1.476-0.014,2.95-0.01,4.563-0.01
		c-0.545,0.883-1.221,1.508-1.783,2.217c-0.574,0.725-1.198,1.41-1.797,2.115c-0.598,0.706-1.189,1.416-1.784,2.124
		c-0.591,0.704-1.181,1.409-1.79,2.138c2.637,3.261,5.236,6.475,7.896,9.762c-0.252,0.043-0.407,0.092-0.562,0.092
		c-1.221,0.002-2.445-0.049-3.664,0.006c-0.619,0.027-0.984-0.262-1.321-0.679c-0.713-0.885-1.417-1.776-2.122-2.667
		c-0.667-0.842-1.32-1.694-1.998-2.525c-0.69-0.846-1.414-1.664-2.104-2.509C183.033,131.926,182.729,131.472,182.377,130.993z"/>
	<path fill="#FFFFFF" d="M67.571,122.447c-2.351,2.79-4.701,5.582-7.092,8.419c2.621,3.244,5.226,6.469,7.897,9.775
		c-0.256,0.029-0.392,0.059-0.527,0.059c-1.285,0.008-2.57-0.004-3.855,0.021c-0.422,0.009-0.723-0.132-0.976-0.455
		c-0.957-1.227-1.913-2.454-2.888-3.666c-0.738-0.916-1.51-1.806-2.256-2.716c-0.665-0.812-1.316-1.637-1.97-2.458
		c-0.091-0.114-0.162-0.244-0.274-0.416c0.248-0.328,0.486-0.669,0.751-0.988c1.664-2.006,3.331-4.01,5.001-6.012
		c0.443-0.531,0.896-1.057,1.356-1.574c0.073-0.082,0.209-0.154,0.316-0.155c1.475-0.01,2.95-0.007,4.425-0.007
		C67.511,122.332,67.541,122.39,67.571,122.447z"/>
	<path fill="#FFFFFF" d="M49.901,122.308c1.337,0,2.68,0,4.02,0c0.143,0.453,0.207,17.12,0.063,18.359
		c-1.34,0.096-2.696,0.021-4.037,0.04C49.796,140.222,49.761,123.079,49.901,122.308z"/>
	<path fill="#FFFFFF" d="M180.746,122.317c0,6.143,0,12.231,0,18.355c-1.393,0-2.748,0-4.145,0c0-6.135,0-12.223,0-18.355
		C177.975,122.317,179.334,122.317,180.746,122.317z"/>
	<path fill="#FFFFFF" d="M143.565,125.886c-0.601-0.81-1.28-1.516-2.092-2.07c-1.679-1.148-3.545-1.781-5.589-1.936
		c-2.123-0.159-4.189-0.029-6.176,0.82c-0.989,0.422-1.916,0.906-2.753,1.615c-0.954,0.809-1.665,1.789-2.223,2.859
		c-0.782,1.502-0.994,3.15-0.922,4.839c0.077,1.808,0.608,3.462,1.628,4.95c1.076,1.568,2.531,2.69,4.293,3.385
		c1.547,0.609,3.178,0.8,4.832,0.811c1.125,0.018,2.23-0.128,3.319-0.387c0.921-0.217,1.78-0.57,2.63-1.015
		c1.738-0.905,2.955-2.271,3.83-3.965c0.555-1.073,0.818-2.255,0.886-3.456C145.357,130.019,145.005,127.826,143.565,125.886z
		 M140.805,131.888c-0.189,1.443-0.529,2.871-1.539,3.99c-1.251,1.389-2.843,2.062-4.53,2.014c-1.491,0.027-2.726-0.258-3.784-1.006
		c-1.139-0.806-1.967-1.881-2.32-3.276c-0.476-1.88-0.407-3.714,0.49-5.458c0.5-0.971,1.248-1.709,2.217-2.266
		c1.664-0.956,3.41-1.076,5.188-0.554c1.791,0.527,3.072,1.696,3.707,3.491C140.582,129.813,140.944,130.825,140.805,131.888z"/>
	<g>
		<path fill="#FFFFFF" d="M220.068,122.031c-1.398-0.034-2.768,1.052-2.824,2.783c-0.018,1.611,1.279,2.839,2.734,2.881
			c1.439,0.042,2.865-1.142,2.855-2.825C222.822,123.194,221.598,122.069,220.068,122.031z M220.064,127.007
			c-1.234,0.045-2.184-0.896-2.189-2.094c-0.006-1.27,0.904-2.213,2.154-2.203c1.238,0.01,2.178,0.846,2.189,2.1
			C222.23,126.107,221.414,126.959,220.064,127.007z"/>
		<path fill="#FFFFFF" d="M219.398,126.252c-0.166-0.018-0.285-0.03-0.417-0.044c0-0.928,0-1.822,0-2.754c0.556,0,1.071,0,1.586,0
			c0.311,0.001,0.525,0.144,0.603,0.447c0.08,0.313,0.119,0.627-0.172,0.871c-0.095,0.08-0.185,0.167-0.273,0.246
			c0.234,0.385,0.461,0.758,0.7,1.148c-0.298,0.158-0.501,0.1-0.654-0.156c-0.097-0.161-0.188-0.326-0.286-0.486
			c-0.277-0.453-0.388-0.496-1.025-0.391C219.439,125.494,219.42,125.864,219.398,126.252z M219.461,124.648
			c0.4,0.017,0.781,0.136,1.113-0.116c0.111-0.084,0.195-0.279,0.188-0.417c-0.005-0.097-0.174-0.245-0.289-0.265
			c-0.339-0.062-0.693-0.162-1.012,0.043C219.461,124.147,219.461,124.372,219.461,124.648z"/>
	</g>
</g>
</svg>
