<?xml version="1.0" encoding="utf-8"?>
<!-- Generator: Adobe Illustrator 16.0.0, SVG Export Plug-In . SVG Version: 6.00 Build 0)  -->
<!DOCTYPE svg PUBLIC "-//W3C//DTD SVG 1.1//EN" "http://www.w3.org/Graphics/SVG/1.1/DTD/svg11.dtd">
<svg version="1.1" id="Layer_1" xmlns="http://www.w3.org/2000/svg" xmlns:xlink="http://www.w3.org/1999/xlink" x="0px" y="0px"
	 width="300px" height="200px" viewBox="0 0 300 200" enable-background="new 0 0 300 200" xml:space="preserve">
<g>
	<g>
		<path fill="#FFFFFF" d="M47.882,74.079L76.78,56.47c0,0,1.936-1.419,3.871-0.259l2.321,1.677l-15.545,9.547l-4.387,2.773
			c0,0-4.645,3.742-2,7.87c2.645,4.129,7.418,4.903,11.095,4.58c3.678-0.322,7.29-2.773,10.837-5.676c0,0,2.968-2.451,5.419-1.355
			c2.451,1.097,4.063,3.032,0.451,5.806c-3.612,2.774-20.448,15.482-20.448,15.482l-23.455-19.61
			C44.939,77.304,43.401,76.335,47.882,74.079z"/>
		<path fill="#FFFFFF" d="M111.741,78.191l-30.86,25.662c0,0-1.936,1.42-3.87,0.258l-3.482-3.217l11.792-9.339l9.313-7.122
			c0,0,5.491-3.624,1.794-9.022c-2.639-3.852-8.283-4.75-11.37-4.485c-3.678,0.315-6.81,2.706-10.357,5.609
			c0,0-2.967,2.451-5.418,1.354c-2.451-1.097-3.778-3.568-0.014-6.133c4.766-3.246,17.657-11.28,17.657-11.28l24.874,15.166
			C111.799,75.642,113.891,76.887,111.741,78.191z"/>
		<g>
			<path fill="#FFFFFF" d="M125.959,98.363c-0.354-3.709-4.001-4.737-8.143-4.737c-3.647,0-6.728,1.873-6.728,4.812
				c0,1.432,0.85,2.9,4.001,3.451l9.524,1.688c4.143,0.734,6.054,3.194,6.054,6.464c0,5.287-4.566,8.482-12.145,8.482
				c-7.258,0-11.472-2.791-11.932-8.63h3.895c0.106,3.562,3.399,5.618,8.25,5.618c5.312,0,8.25-2.167,8.25-5.068
				c0-7.344-19.58-0.697-19.58-11.787c0-5.104,4.178-8.041,11.153-8.041c5.312,0,10.94,1.651,11.295,7.748H125.959z"/>
			<path fill="#FFFFFF" d="M153.684,105.485h-17.038v12.339h-3.819V91.312h3.819v11.164h17.038V91.312h3.82v26.512h-3.82V105.485z"
				/>
			<path fill="#FFFFFF" d="M161.154,91.312h3.818v26.512h-3.818V91.312z"/>
			<path fill="#FFFFFF" d="M169.339,91.312h3.819v23.501h16.805v3.011h-20.624V91.312z"/>
			<path fill="#FFFFFF" d="M202.73,89.639c11.126,0,14.908,8.614,14.908,14.928c0,6.316-3.782,14.484-14.909,14.484
				c-11.126,0-14.908-8.168-14.908-14.484C187.821,98.253,191.604,89.639,202.73,89.639z M202.73,115.511
				c6.426,0,10.869-4.406,10.869-10.943c0-6.536-4.443-10.942-10.869-10.942s-10.869,4.406-10.869,10.942
				C191.861,111.104,196.305,115.511,202.73,115.511z"/>
			<path fill="#FFFFFF" d="M240.176,105.485h-17.039v12.339h-3.819V91.312h3.819v11.164h17.039V91.312h3.818v26.512h-3.818V105.485z
				"/>
		</g>
		<g>
			<path fill="#FFFFFF" d="M249.465,118.483c-1.73,0-3.14-1.408-3.14-3.14c0-1.73,1.409-3.14,3.14-3.14s3.139,1.409,3.139,3.14
				C252.604,117.075,251.195,118.483,249.465,118.483z M249.465,112.837c-1.383,0-2.506,1.125-2.506,2.507s1.123,2.507,2.506,2.507
				c1.381,0,2.506-1.125,2.506-2.507S250.846,112.837,249.465,112.837z"/>
			<g>
				<path fill="#FFFFFF" d="M248.252,117.054v-3.42h1.377c0.287,0,0.5,0.032,0.637,0.097c0.137,0.063,0.249,0.169,0.337,0.317
					s0.132,0.32,0.132,0.516c0,0.26-0.074,0.468-0.224,0.627c-0.149,0.162-0.365,0.263-0.649,0.307
					c0.115,0.063,0.203,0.125,0.264,0.189c0.122,0.131,0.229,0.275,0.322,0.436l0.543,0.932h-0.517l-0.414-0.711
					c-0.161-0.278-0.282-0.466-0.364-0.563c-0.081-0.096-0.16-0.162-0.236-0.194c-0.077-0.034-0.185-0.052-0.322-0.052h-0.475v1.52
					H248.252z M248.662,115.144h0.883c0.193,0,0.34-0.021,0.44-0.063c0.099-0.042,0.179-0.108,0.237-0.198s0.088-0.195,0.088-0.315
					c0-0.172-0.056-0.308-0.168-0.407c-0.111-0.098-0.277-0.147-0.498-0.147h-0.982V115.144z"/>
			</g>
		</g>
	</g>
	<g>
		<path fill="#FFFFFF" d="M44.661,141.942v-8.659h0.78v7.939h4.353v0.72H44.661z"/>
		<path fill="#FFFFFF" d="M52.233,134.183h-0.84v-0.899h0.84V134.183z M52.174,135.921v6.021h-0.72v-6.021H52.174z"/>
		<path fill="#FFFFFF" d="M58.64,135.921h0.743c-0.023,0.409-0.06,0.889-0.06,1.355v3.61c0,1.2,0.06,2.459-1.271,3.083
			c-0.479,0.228-0.804,0.275-1.367,0.275c-1.092,0-2.387-0.372-2.387-1.619h0.779c0.084,0.72,0.936,0.96,1.703,0.96
			c0.936,0,1.799-0.66,1.823-1.667v-1.128h-0.024c-0.348,0.708-1.175,1.128-1.955,1.128c-1.811,0-2.59-1.379-2.59-3.035
			c0-1.631,0.731-3.143,2.566-3.143c0.875,0,1.499,0.42,1.979,1.115l0.024-0.047L58.64,135.921z M56.673,136.4
			c-1.308,0-1.859,1.321-1.859,2.424s0.563,2.435,1.883,2.435c1.379,0,1.907-1.283,1.907-2.459
			C58.604,137.648,57.968,136.4,56.673,136.4z"/>
		<path fill="#FFFFFF" d="M62.193,136.833h0.023c0.42-0.744,1.104-1.092,1.884-1.092c1.967,0,2.122,1.74,2.122,2.436v3.766h-0.72
			v-3.886c0-1.044-0.6-1.656-1.583-1.656c-1.188,0-1.727,0.997-1.727,2.075v3.467h-0.72v-8.659h0.72V136.833z"/>
		<path fill="#FFFFFF" d="M69.01,136.581h-1.2v-0.66h1.2v-1.283l0.719-0.311v1.594h1.367v0.66h-1.367v4.029
			c-0.012,0.553,0.276,0.852,0.828,0.852c0.216,0,0.432-0.012,0.623-0.071v0.624c-0.228,0.06-0.491,0.107-0.731,0.107
			c-1.522,0-1.438-0.972-1.438-1.787V136.581z"/>
		<path fill="#FFFFFF" d="M74.9,140.995h0.024l1.822-5.074h0.852l1.775,5.026h0.024l1.738-5.026h0.792l-2.243,6.021h-0.684
			l-1.847-5.193h-0.024l-1.883,5.193h-0.731l-2.207-6.021h0.792L74.9,140.995z"/>
		<path fill="#FFFFFF" d="M83.602,139.1c0.023,1.284,0.61,2.362,2.087,2.362c0.852,0,1.559-0.61,1.738-1.438h0.756
			c-0.372,1.438-1.271,2.099-2.723,2.099c-1.799,0-2.639-1.547-2.639-3.19c0-1.63,0.899-3.19,2.687-3.19
			c2.016,0,2.747,1.476,2.747,3.358H83.602z M87.475,138.44c-0.083-1.164-0.707-2.04-1.954-2.04c-1.176,0-1.8,0.985-1.896,2.04
			H87.475z"/>
		<path fill="#FFFFFF" d="M90.993,134.183h-0.84v-0.899h0.84V134.183z M90.933,135.921v6.021h-0.719v-6.021H90.933z"/>
		<path fill="#FFFFFF" d="M97.399,135.921h0.743c-0.024,0.409-0.061,0.889-0.061,1.355v3.61c0,1.2,0.061,2.459-1.271,3.083
			c-0.479,0.228-0.804,0.275-1.367,0.275c-1.092,0-2.387-0.372-2.387-1.619h0.779c0.084,0.72,0.936,0.96,1.703,0.96
			c0.936,0,1.799-0.66,1.823-1.667v-1.128h-0.024c-0.348,0.708-1.175,1.128-1.955,1.128c-1.811,0-2.591-1.379-2.591-3.035
			c0-1.631,0.732-3.143,2.567-3.143c0.875,0,1.499,0.42,1.979,1.115l0.024-0.047L97.399,135.921z M95.432,136.4
			c-1.307,0-1.858,1.321-1.858,2.424s0.563,2.435,1.883,2.435c1.379,0,1.907-1.283,1.907-2.459
			C97.363,137.648,96.728,136.4,95.432,136.4z"/>
		<path fill="#FFFFFF" d="M100.953,136.833h0.023c0.42-0.744,1.104-1.092,1.883-1.092c1.967,0,2.123,1.74,2.123,2.436v3.766h-0.72
			v-3.886c0-1.044-0.6-1.656-1.583-1.656c-1.188,0-1.727,0.997-1.727,2.075v3.467h-0.72v-8.659h0.72V136.833z"/>
		<path fill="#FFFFFF" d="M107.769,136.581h-1.199v-0.66h1.199v-1.283l0.72-0.311v1.594h1.367v0.66h-1.367v4.029
			c-0.012,0.553,0.276,0.852,0.828,0.852c0.216,0,0.432-0.012,0.623-0.071v0.624c-0.229,0.06-0.491,0.107-0.731,0.107
			c-1.523,0-1.439-0.972-1.439-1.787V136.581z"/>
		<path fill="#FFFFFF" d="M112.389,134.183h-0.84v-0.899h0.84V134.183z M112.328,135.921v6.021h-0.719v-6.021H112.328z"/>
		<path fill="#FFFFFF" d="M115.328,141.942h-0.719v-4.666c0-0.467-0.036-0.946-0.061-1.355h0.743l0.036,0.889l0.024,0.023
			c0.42-0.744,1.104-1.092,1.883-1.092c1.967,0,2.123,1.74,2.123,2.436v3.766h-0.72v-3.886c0-1.044-0.6-1.656-1.583-1.656
			c-1.188,0-1.728,0.997-1.728,2.075V141.942z"/>
		<path fill="#FFFFFF" d="M125.814,135.921h0.744c-0.023,0.409-0.061,0.889-0.061,1.355v3.61c0,1.2,0.061,2.459-1.271,3.083
			c-0.479,0.228-0.803,0.275-1.367,0.275c-1.091,0-2.387-0.372-2.387-1.619h0.779c0.084,0.72,0.937,0.96,1.704,0.96
			c0.936,0,1.799-0.66,1.823-1.667v-1.128h-0.024c-0.348,0.708-1.175,1.128-1.955,1.128c-1.812,0-2.591-1.379-2.591-3.035
			c0-1.631,0.731-3.143,2.566-3.143c0.876,0,1.5,0.42,1.979,1.115l0.024-0.047L125.814,135.921z M123.848,136.4
			c-1.308,0-1.859,1.321-1.859,2.424s0.564,2.435,1.884,2.435c1.379,0,1.907-1.283,1.907-2.459
			C125.779,137.648,125.143,136.4,123.848,136.4z"/>
		<path fill="#FFFFFF" d="M133.436,140.995h0.023l1.824-5.074h0.852l1.775,5.026h0.023l1.739-5.026h0.792l-2.243,6.021h-0.684
			l-1.847-5.193h-0.025l-1.882,5.193h-0.731l-2.207-6.021h0.791L133.436,140.995z"/>
		<path fill="#FFFFFF" d="M142.748,134.183h-0.839v-0.899h0.839V134.183z M142.688,135.921v6.021h-0.72v-6.021H142.688z"/>
		<path fill="#FFFFFF" d="M145.484,136.581h-1.199v-0.66h1.199v-1.283l0.72-0.311v1.594h1.367v0.66h-1.367v4.029
			c-0.012,0.553,0.275,0.852,0.827,0.852c0.217,0,0.432-0.012,0.624-0.071v0.624c-0.228,0.06-0.491,0.107-0.731,0.107
			c-1.523,0-1.439-0.972-1.439-1.787V136.581z"/>
		<path fill="#FFFFFF" d="M150.032,136.833h0.024c0.42-0.744,1.104-1.092,1.883-1.092c1.967,0,2.123,1.74,2.123,2.436v3.766h-0.72
			v-3.886c0-1.044-0.601-1.656-1.583-1.656c-1.188,0-1.728,0.997-1.728,2.075v3.467h-0.72v-8.659h0.72V136.833z"/>
		<path fill="#FFFFFF" d="M161.514,138.932c0,1.583-0.887,3.19-2.807,3.19c-1.918,0-2.807-1.607-2.807-3.19s0.889-3.19,2.807-3.19
			C160.627,135.741,161.514,137.349,161.514,138.932z M158.707,136.4c-1.451,0-2.026,1.416-2.026,2.531
			c0,1.116,0.575,2.53,2.026,2.53s2.027-1.414,2.027-2.53C160.734,137.816,160.158,136.4,158.707,136.4z"/>
		<path fill="#FFFFFF" d="M167.383,135.921h0.719v4.666c0,0.468,0.037,0.947,0.061,1.355h-0.744l-0.035-0.888l-0.024-0.023
			c-0.42,0.743-1.103,1.091-1.883,1.091c-1.967,0-2.122-1.738-2.122-2.435v-3.767h0.719v3.887c0,1.044,0.6,1.654,1.584,1.654
			c1.187,0,1.727-0.994,1.727-2.074V135.921z"/>
		<path fill="#FFFFFF" d="M170.889,136.581h-1.199v-0.66h1.199v-1.283l0.72-0.311v1.594h1.367v0.66h-1.367v4.029
			c-0.013,0.553,0.275,0.852,0.827,0.852c0.216,0,0.432-0.012,0.624-0.071v0.624c-0.228,0.06-0.491,0.107-0.731,0.107
			c-1.523,0-1.439-0.972-1.439-1.787V136.581z"/>
		<path fill="#FFFFFF" d="M181.002,137.769c-0.059-0.924-0.647-1.368-1.643-1.368c-1.104,0-1.787,1.153-1.787,2.519
			c0,1.381,0.684,2.543,1.787,2.543c0.936,0,1.584-0.575,1.643-1.402h0.78c-0.192,1.379-0.983,2.063-2.351,2.063
			c-1.799,0-2.639-1.547-2.639-3.19c0-1.63,0.899-3.19,2.687-3.19c1.235,0,2.243,0.743,2.303,2.027H181.002z"/>
		<path fill="#FFFFFF" d="M188.729,138.932c0,1.583-0.888,3.19-2.806,3.19c-1.92,0-2.807-1.607-2.807-3.19s0.887-3.19,2.807-3.19
			C187.842,135.741,188.729,137.349,188.729,138.932z M185.924,136.4c-1.451,0-2.027,1.416-2.027,2.531
			c0,1.116,0.576,2.53,2.027,2.53s2.026-1.414,2.026-2.53C187.95,137.816,187.375,136.4,185.924,136.4z"/>
		<path fill="#FFFFFF" d="M191.276,136.81l0.024,0.023c0.42-0.744,1.104-1.092,1.883-1.092c0.947,0,1.691,0.529,1.955,1.32
			c0.443-0.707,1.139-1.32,2.074-1.32c1.967,0,2.123,1.74,2.123,2.436v3.766h-0.72v-3.886c0-1.044-0.6-1.656-1.583-1.656
			c-1.188,0-1.727,0.997-1.727,2.075v3.467h-0.721v-3.886c0-1.044-0.6-1.656-1.582-1.656c-1.188,0-1.728,0.997-1.728,2.075v3.467
			h-0.72v-4.666c0-0.467-0.035-0.946-0.061-1.355h0.744L191.276,136.81z"/>
		<path fill="#FFFFFF" d="M202.184,144.245h-0.719v-6.969c0.012-0.467-0.036-0.946-0.061-1.355h0.744l0.035,0.889l0.025,0.023
			c0.418-0.707,1.259-1.092,2.063-1.092c1.787,0,2.471,1.607,2.471,3.166c0,1.512-0.684,3.215-2.436,3.215
			c-0.875,0-1.606-0.396-2.098-1.115h-0.025V144.245z M204.235,141.462c1.379,0,1.728-1.522,1.728-2.638
			c0-1.151-0.469-2.424-1.836-2.424c-1.402,0-1.943,1.164-1.943,2.388C202.184,140.155,202.664,141.462,204.235,141.462z"/>
		<path fill="#FFFFFF" d="M209.324,141.942h-0.72v-4.666c0.013-0.467-0.036-0.946-0.06-1.355h0.743l0.036,0.889h0.023
			c0.216-0.612,0.756-1.044,1.355-1.068c0.24-0.011,0.48,0,0.721,0.012v0.696c-0.145-0.011-0.301-0.049-0.444-0.049
			c-1.067,0-1.632,0.769-1.655,1.92V141.942z"/>
		<path fill="#FFFFFF" d="M218.13,138.932c0,1.583-0.888,3.19-2.807,3.19s-2.807-1.607-2.807-3.19s0.888-3.19,2.807-3.19
			S218.13,137.349,218.13,138.932z M215.323,136.4c-1.451,0-2.026,1.416-2.026,2.531c0,1.116,0.575,2.53,2.026,2.53
			s2.026-1.414,2.026-2.53C217.35,137.816,216.774,136.4,215.323,136.4z"/>
		<path fill="#FFFFFF" d="M220.676,136.81l0.024,0.023c0.419-0.744,1.104-1.092,1.883-1.092c0.948,0,1.691,0.529,1.955,1.32
			c0.443-0.707,1.14-1.32,2.075-1.32c1.967,0,2.123,1.74,2.123,2.436v3.766h-0.721v-3.886c0-1.044-0.6-1.656-1.582-1.656
			c-1.188,0-1.728,0.997-1.728,2.075v3.467h-0.72v-3.886c0-1.044-0.6-1.656-1.583-1.656c-1.188,0-1.728,0.997-1.728,2.075v3.467
			h-0.719v-4.666c0-0.467-0.037-0.946-0.061-1.355h0.744L220.676,136.81z"/>
		<path fill="#FFFFFF" d="M231.775,134.183h-0.839v-0.899h0.839V134.183z M231.716,135.921v6.021h-0.72v-6.021H231.716z"/>
		<path fill="#FFFFFF" d="M235.999,135.741c1.14,0,2.099,0.396,2.194,1.668h-0.779c-0.072-0.756-0.743-1.009-1.486-1.009
			c-0.672,0-1.355,0.265-1.355,0.972c0,0.889,1.163,0.805,2.794,1.381c0.624,0.215,1.02,0.755,1.02,1.402
			c0,1.355-1.259,1.967-2.53,1.967c-1.043,0-2.243-0.492-2.268-1.822h0.78c0.06,0.898,0.852,1.162,1.667,1.162
			c0.768,0,1.571-0.359,1.571-1.198c0-0.864-0.948-1.009-1.907-1.224c-0.947-0.229-1.906-0.504-1.906-1.619
			C233.793,136.173,234.943,135.741,235.999,135.741z"/>
		<path fill="#FFFFFF" d="M240.764,139.1c0.024,1.284,0.611,2.362,2.088,2.362c0.852,0,1.559-0.61,1.738-1.438h0.756
			c-0.372,1.438-1.271,2.099-2.723,2.099c-1.799,0-2.639-1.547-2.639-3.19c0-1.63,0.899-3.19,2.687-3.19
			c2.015,0,2.747,1.476,2.747,3.358H240.764z M244.638,138.44c-0.083-1.164-0.708-2.04-1.954-2.04c-1.176,0-1.8,0.985-1.896,2.04
			H244.638z"/>
		<path fill="#FFFFFF" d="M247.592,141.942v-1.031h0.96v1.031H247.592z"/>
		<path fill="#FFFFFF" d="M250.596,133.296h-0.932v-0.24h2.111v0.24h-0.915l-0.005,2.646H250.6L250.596,133.296z"/>
		<path fill="#FFFFFF" d="M252.336,135.942v-2.887h0.416l1.084,2.516l1.107-2.516h0.396v2.887h-0.26v-2.667h-0.008l-1.104,2.667
			h-0.26l-1.104-2.654h-0.009v2.654H252.336z"/>
	</g>
</g>
</svg>
