<?xml version="1.0" encoding="utf-8"?>
<!-- Generator: Adobe Illustrator 16.0.0, SVG Export Plug-In . SVG Version: 6.00 Build 0)  -->
<!DOCTYPE svg PUBLIC "-//W3C//DTD SVG 1.1//EN" "http://www.w3.org/Graphics/SVG/1.1/DTD/svg11.dtd">
<svg version="1.1" id="Layer_1" xmlns="http://www.w3.org/2000/svg" xmlns:xlink="http://www.w3.org/1999/xlink" x="0px" y="0px"
	 width="300px" height="200px" viewBox="0 0 300 200" enable-background="new 0 0 300 200" xml:space="preserve">
<g>
	<path fill="#FFFFFF" d="M63.968,107.286c-0.954,0.393-1.064,0.851-0.635,1.736c3.461,7.149-0.579,15.474-8.262,16.987
		c-3.632,0.715-6.945-0.168-9.864-2.465c-0.268-0.21-0.526-0.432-0.791-0.646c-0.022-0.019-0.058-0.021-0.041-0.015
		c-0.674,0.404-1.309,1.063-1.973,1.093c-0.506,0.023-1.138-0.675-1.558-1.182c-0.974-1.177-0.883-1.392,0.75-2.862
		c-0.457-1.643-1.086-3.21-1.31-4.833c-0.67-4.881,1.009-8.899,5.083-11.683c4.015-2.743,8.259-2.615,12.48-0.346
		c0.624,0.336,1.255,0.712,1.766,1.192c0.668,0.628,1.151,0.565,1.661-0.19c-0.423-0.552-0.9-1.087-1.264-1.689
		c-0.149-0.247-0.172-0.7-0.044-0.953c0.187-0.369,0.525-0.692,0.865-0.947c1.031-0.771,1.377-0.71,2.185,0.287
		c0.311,0.383,0.622,0.766,0.976,1.201c3.123-2.515,6.203-4.995,9.37-7.544c-3.31-2.753-6.541-5.439-9.852-8.194
		c-0.486,0.621-0.936,1.196-1.436,1.835c0.622,0.504,1.214,0.984,1.892,1.533c-0.471,0.613-0.928,1.208-1.412,1.837
		c-0.662-0.514-1.247-0.967-1.928-1.494c-0.466,0.536-0.921,1.06-1.434,1.649c0.615,0.528,1.192,1.021,1.815,1.556
		c-0.491,0.659-0.946,1.271-1.426,1.915c-1.76-1.442-3.458-2.834-5.277-4.326c1.671-0.927,3.244-1.799,4.826-2.676
		c-1.109-1.383-1.115-1.383-2.503-0.623c-1.056,0.579-2.116,1.152-3.359,1.829c0.387-1.293,0.716-2.405,1.054-3.514
		c0.464-1.522,0.468-1.521-0.994-2.595c-0.561,1.781-1.109,3.522-1.695,5.382c-1.811-1.461-3.535-2.853-5.349-4.316
		c0.465-0.576,0.902-1.117,1.412-1.748c0.625,0.492,1.219,0.96,1.875,1.477c0.5-0.576,0.977-1.126,1.496-1.725
		c-0.639-0.583-1.227-1.12-1.882-1.719c0.473-0.557,0.926-1.09,1.412-1.662c0.635,0.466,1.229,0.902,1.916,1.406
		c0.451-0.541,0.893-1.073,1.377-1.654c-1.239-0.981-2.408-1.943-3.621-2.847c-0.467-0.348-0.61-0.699-0.275-1.157
		c0.662-0.906,1.358-1.787,2.095-2.75c7.549,6.173,14.881,12.169,22.334,18.264c0-4.062,0-7.973,0-11.972c-0.67,0-1.357,0-2.145,0
		c0,0.693,0,1.392,0,2.15c-0.79,0-1.48,0-2.274,0c0-0.73,0-1.429,0-2.18c-0.802,0-1.503,0-2.296,0c0,0.706,0,1.405,0,2.174
		c-0.809,0-1.528,0-2.294,0c0-2.213,0-4.396,0-6.705c1.754,0.734,3.423,1.433,5.106,2.138c0.293-1.779,0.294-1.783-1.182-2.397
		c-1.114-0.464-2.232-0.915-3.557-1.456c1.255-0.503,2.345-0.938,3.434-1.375c1.516-0.607,1.516-0.607,1.345-2.363
		c-1.708,0.666-3.393,1.322-5.148,2.006c0-2.317,0-4.537,0-6.822c0.718,0,1.414,0,2.204,0c0,0.752,0,1.512,0,2.358
		c0.809,0,1.527,0,2.352,0c0-0.758,0-1.518,0-2.35c0.791,0,1.481,0,2.267,0c0,0.777,0,1.54,0,2.369c0.787,0,1.479,0,2.264,0
		c0-1.597,0.022-3.14-0.012-4.682c-0.013-0.561,0.139-0.883,0.725-0.945c0.369-0.039,0.732-0.147,1.1-0.165
		c1.992-0.096,2.274,0.178,2.274,2.147c0,8.93,0,17.86,0,26.79c0,0.362,0,0.724,0,1.311c1.037-0.841,1.916-1.548,2.79-2.263
		c6.238-5.104,12.482-10.2,18.7-15.328c0.595-0.491,0.994-0.483,1.463,0.063c0.141,0.165,0.313,0.302,0.459,0.461
		c1.575,1.711,1.546,2.064-0.26,3.466c-0.856,0.664-1.71,1.333-2.646,2.062c0.476,0.554,0.931,1.082,1.432,1.665
		c0.641-0.469,1.236-0.905,1.926-1.409c0.455,0.525,0.909,1.05,1.427,1.648c-0.627,0.571-1.214,1.106-1.877,1.709
		c0.463,0.579,0.915,1.145,1.405,1.757c0.669-0.521,1.273-0.991,1.925-1.499c0.486,0.586,0.938,1.13,1.447,1.744
		c-1.785,1.442-3.534,2.856-5.36,4.333c-0.575-1.846-1.114-3.574-1.655-5.309c-1.469,0.753-1.523,0.879-1.083,2.33
		c0.346,1.143,0.683,2.289,1.097,3.676c-1.218-0.659-2.212-1.197-3.206-1.736c-1.477-0.8-1.477-0.8-2.745,0.526
		c1.611,0.88,3.199,1.749,4.93,2.694c-1.813,1.467-3.558,2.879-5.359,4.336c-0.485-0.655-0.939-1.27-1.422-1.923
		c0.646-0.525,1.241-1.01,1.893-1.541c-0.482-0.56-0.938-1.088-1.423-1.652c-0.665,0.505-1.272,0.966-1.94,1.473
		c-0.492-0.625-0.942-1.196-1.421-1.806c0.673-0.551,1.265-1.036,1.9-1.556c-0.501-0.633-0.958-1.209-1.443-1.821
		c-3.295,2.739-6.534,5.432-9.839,8.179c3.128,2.521,6.211,5.007,9.36,7.545c0.438-0.539,0.889-1.007,1.236-1.542
		c0.376-0.577,0.815-0.599,1.338-0.306c0.294,0.165,0.586,0.356,0.829,0.589c0.913,0.872,0.926,1.168,0.154,2.136
		c-0.308,0.386-0.615,0.773-0.966,1.217c0.339,0.268,0.647,0.509,1.005,0.792c2.718-2.268,5.755-3.662,9.356-3.408
		c2.55,0.181,4.803,1.125,6.746,2.802c3.596,3.104,5.82,9.146,2.46,15.497c0.542,0.567,1.251,1.052,1.541,1.719
		c0.149,0.346-0.345,1.109-0.729,1.51c-0.447,0.467-1.108,1.049-1.646,1.02c-0.565-0.031-1.093-0.727-1.499-1.029
		c-1.49,0.843-2.828,1.841-4.329,2.403c-4.602,1.724-8.923,1.063-12.494-2.383c-3.677-3.548-4.403-7.947-2.929-12.764
		c0.126-0.413,0.248-0.847,0.473-1.207c0.488-0.777,0.303-1.308-0.573-1.731c-0.43,0.562-0.837,1.181-1.341,1.709
		c-0.198,0.207-0.65,0.351-0.914,0.274c-0.426-0.124-0.844-0.399-1.174-0.708c-0.869-0.814-0.867-1.254-0.103-2.174
		c0.315-0.38,0.631-0.759,0.996-1.197c-2.602-2.16-5.164-4.288-7.848-6.516c0,3.521,0,6.877,0,10.334
		c0.568,0.033,1.151,0.133,1.72,0.082c0.905-0.079,1.208,0.44,1.358,1.177c0.288,1.401-0.302,2.136-1.714,2.136
		c-0.429,0-0.858,0-1.32,0c-0.221,0.844-0.182,1.293,0.826,1.532c5.041,1.193,8.991,5.463,9.52,10.147
		c0.685,6.058-3.207,11.643-9.201,13.203c-0.385,0.1-0.774,0.188-1.255,0.303c0,0.381-0.049,0.754,0.01,1.109
		c0.146,0.875-0.301,1.28-1.078,1.372c-0.573,0.067-1.163,0.063-1.74,0.021c-0.936-0.071-1.505-0.485-1.284-1.553
		c0.145-0.696-0.133-0.994-0.872-1.176c-5.93-1.458-9.683-6.349-9.524-12.319c0.136-5.129,3.999-9.736,9.237-11.017
		c0.357-0.087,0.716-0.168,1.114-0.262c0-0.418,0-0.812,0-1.361c-0.673,0-1.343-0.043-2.006,0.013
		c-0.629,0.052-0.931-0.239-1.033-0.796c-0.066-0.363-0.111-0.739-0.095-1.107c0.055-1.263,0.295-1.48,1.541-1.481
		c0.517,0,1.034,0,1.586,0c0-3.471,0-6.826,0-10.381c-2.728,2.239-5.324,4.371-7.961,6.536c0.404,0.466,0.722,0.94,1.143,1.292
		c0.75,0.627,0.539,1.208,0.022,1.807c-0.2,0.232-0.429,0.452-0.68,0.626c-1.008,0.698-1.298,0.645-2.026-0.326
		C64.625,108.162,64.309,107.742,63.968,107.286z M69.185,124.974c0.325,0.233,0.512,0.371,0.702,0.505
		c1.176,0.836,2.703,0.801,3.798-0.086c1.184-0.959,1.527-2.581,0.854-4.042c-0.592-1.287-1.817-1.891-3.299-1.645
		c-1.951,0.325-3.003,1.614-3.573,3.374c-1.486,4.59,1.307,9.721,5.966,10.993c0.253,0.069,0.523,0.077,0.817,0.118
		c0.021-0.201,0.042-0.321,0.046-0.441c0.057-1.941,0.198-2.078,2.175-2.041c0.308,0.006,0.615,0.055,0.923,0.085
		c0.728,0.073,1.13,0.392,1.003,1.204c-0.061,0.383-0.011,0.783-0.011,1.268c0.515-0.134,0.91-0.205,1.284-0.338
		c4.213-1.502,6.771-6.351,5.609-10.669c-0.513-1.908-1.604-3.26-3.692-3.567c-1.46-0.214-2.679,0.409-3.284,1.706
		c-0.647,1.386-0.292,3.022,0.857,3.964c1.137,0.93,2.532,0.964,3.775,0.089c0.192-0.134,0.379-0.276,0.713-0.521
		c0,0.654,0,1.138,0,1.621c0,2.221-0.284,2.518-2.546,2.65c-0.215,0.014-0.433-0.004-0.649-0.012
		c-1.702-0.059-3.087-0.752-4.087-2.153c-1.867,2.087-4.361,2.729-6.686,1.744c-0.271-0.115-0.647-0.399-0.663-0.627
		C69.144,127.148,69.185,126.136,69.185,124.974z M101.77,114.89c0.258,2.848-0.715,4.964-2.869,6.168
		c-0.271,0.151-0.76,0.239-0.979,0.097c-0.824-0.534-1.579-1.177-2.436-1.838c0.349-0.113,0.581-0.187,0.811-0.264
		c1.612-0.543,2.445-1.834,2.261-3.503c-0.16-1.455-1.461-2.657-3.031-2.801c-1.506-0.138-2.854,0.854-3.331,2.412
		c-0.363,1.184-0.073,2.271,0.447,3.319c1.648,3.327,5.512,5.137,9.325,4.387c1.498-0.294,2.872-0.83,4.033-1.938
		c-0.188-0.161-0.301-0.264-0.419-0.358c-1.418-1.142-1.459-1.552-0.277-2.981c0.177-0.213,0.383-0.404,0.586-0.594
		c0.509-0.478,1.006-0.667,1.576-0.043c0.284,0.312,0.671,0.527,1.058,0.821c1.088-1.969,1.339-3.999,0.772-6.073
		c-0.877-3.203-2.64-5.672-6.065-6.509c-1.367-0.334-2.719-0.226-3.882,0.71c-1.153,0.928-1.544,2.535-0.926,3.763
		c0.687,1.362,2.371,2.211,3.713,1.872c1.477-0.372,2.487-1.684,2.463-3.195c-0.002-0.127,0.025-0.256,0.048-0.48
		c0.777,0.618,1.434,1.182,2.134,1.686c0.484,0.35,0.562,0.707,0.355,1.264C106.207,113.317,104.533,114.822,101.77,114.89z
		 M48.352,107.843c0,0.339-0.007,0.491,0.001,0.643c0.095,1.609,1.295,2.938,2.808,3.111c1.502,0.173,3.05-0.874,3.485-2.357
		c0.436-1.485-0.254-3.235-1.761-3.76c-0.969-0.337-2.153-0.433-3.156-0.226c-3.395,0.704-6.055,4.057-6.283,7.657
		c-0.106,1.68,0.027,3.311,0.94,4.85c0.565-0.426,1.038-1.055,1.557-1.096c0.498-0.039,1.155,0.431,1.539,0.858
		c0.458,0.511,1.044,1.278,0.944,1.818c-0.113,0.611-0.925,1.094-1.433,1.632c3.549,3.401,10.271,2.467,12.905-1.863
		c0.51-0.839,0.822-1.889,0.914-2.87c0.17-1.791-1.122-3.273-2.79-3.483c-1.605-0.202-3.243,0.932-3.571,2.472
		c-0.371,1.746,0.51,3.242,2.264,3.846c0.195,0.067,0.39,0.139,0.687,0.243c-0.76,0.588-1.477,1.078-2.114,1.656
		c-0.496,0.45-0.912,0.394-1.394,0.047c-2.085-1.5-3.326-3.377-2.678-6.081c-2.717-0.036-4.312-1.537-5.34-3.832
		c-0.313-0.698-0.328-1.245,0.432-1.708C46.988,108.986,47.584,108.437,48.352,107.843z"/>
	<path fill="#FFFFFF" d="M185.021,75.227c-1.653,0-3.291-0.043-4.925,0.017c-0.852,0.032-1.181-0.235-1.093-1.096
		c0.063-0.609,0.012-1.23,0.012-1.916c0.354-0.023,0.623-0.057,0.893-0.057c7.967-0.001,15.935-0.02,23.901,0.015
		c2.978,0.013,5.85,0.6,8.493,2.046c7.248,3.963,8.416,13.521,2.315,18.994c-2.116,1.898-4.622,3.084-7.342,3.846
		c-0.26,0.073-0.515,0.159-0.733,0.227c1.689,0.43,3.427,0.728,5.061,1.316c5.271,1.899,8.394,5.654,8.889,11.267
		c0.477,5.416-1.315,9.953-5.977,13.079c-3.26,2.188-6.957,3.167-10.812,3.222c-8.304,0.116-16.611,0.035-25.003,0.035
		c0-0.952,0-1.918,0-3.004c2.095,0,4.182,0,6.32,0C185.021,107.183,185.021,91.263,185.021,75.227z M194.156,123.139
		c2.311,0,4.517,0.132,6.701-0.026c5.053-0.366,8.403-3.331,9.436-8.244c0.596-2.826,0.529-5.671-0.18-8.472
		c-1.163-4.589-4.373-7.152-9.094-7.278c-2.105-0.056-4.213-0.02-6.319-0.019c-0.175,0.001-0.351,0.053-0.544,0.084
		C194.156,107.181,194.156,115.128,194.156,123.139z M194.146,96.022c2.23,0,4.368,0.08,6.498-0.021
		c2.578-0.121,4.688-1.315,6.041-3.492c2.713-4.359,2.805-8.917,0.419-13.427c-1.329-2.512-3.591-3.793-6.468-3.842
		c-1.953-0.034-3.906-0.013-5.86-0.008c-0.202,0.001-0.404,0.064-0.63,0.104C194.146,82.236,194.146,89.08,194.146,96.022z"/>
	<path fill="#FFFFFF" d="M133.764,75.228c-1.954,0-3.802,0-5.703,0c0-1.057,0-2.001,0-3c7.209,0,14.388,0,21.626,0
		c0,0.956,0,1.899,0,2.969c-2.008,0-4.005,0-6.021,0c-0.049,0.294-0.104,0.471-0.104,0.647c0.018,11.225-0.016,22.45,0.107,33.674
		c0.023,2.169,0.45,4.39,1.048,6.484c1.345,4.718,4.261,6.917,9.149,7.075c1.443,0.047,2.924-0.091,4.338-0.383
		c4.5-0.932,6.73-4.08,7.529-8.325c0.426-2.269,0.607-4.613,0.621-6.925c0.064-10.419,0.029-20.838,0.027-31.257
		c0-0.275-0.021-0.55-0.039-0.948c-1.909,0-3.783,0-5.707,0c0-1.069,0-2.013,0-3.012c5.1,0,10.17,0,15.309,0
		c0,0.954,0,1.895,0,2.969c-1.696,0-3.383,0-5.169,0c0,0.492,0,0.854,0,1.217c-0.001,10.605,0.003,21.21-0.003,31.816
		c-0.002,2.86-0.262,5.688-1.059,8.454c-1.492,5.178-4.826,8.445-10.107,9.535c-4.854,1.001-9.744,0.965-14.575-0.192
		c-6.079-1.456-9.628-5.397-10.655-11.503c-0.418-2.491-0.571-5.052-0.588-7.583c-0.063-10.139-0.025-20.279-0.025-30.419
		C133.764,76.151,133.764,75.781,133.764,75.228z"/>
	<path fill="#FFFFFF" d="M225.828,109.437c1.14,0,2.181,0,3.201,0c0.242,1.645,0.376,3.282,0.742,4.865
		c0.918,3.972,2.9,7.169,6.891,8.731c2.488,0.974,5.073,1.165,7.675,0.628c4.129-0.853,6.734-4.182,7.22-8.714
		c0.457-4.27-1.201-7.337-4.945-9.217c-2.23-1.12-4.595-1.988-6.936-2.875c-2.79-1.057-5.52-2.215-7.91-4.039
		c-4.624-3.53-6.277-8.282-5.633-13.937c0.848-7.44,5.74-11.824,13.148-13.039c5.748-0.942,11.207,0.184,16.472,2.526
		c0.626,0.279,0.863,0.645,0.877,1.328c0.075,3.745,0.194,7.489,0.301,11.308c-1.147,0-2.212,0-3.294,0
		c-0.259-1.374-0.445-2.754-0.793-4.091c-0.287-1.101-0.675-2.196-1.178-3.215c-1.63-3.301-4.376-4.94-8.016-5.147
		c-2.072-0.118-4.049,0.172-5.959,1.082c-4.357,2.076-6.426,10.09-1.406,13.855c1.985,1.488,4.17,2.541,6.475,3.386
		c3.282,1.204,6.641,2.234,9.626,4.122c5.62,3.553,7.911,8.759,7.404,15.267c-0.585,7.515-5.408,13.036-14.149,14.319
		c-6.186,0.908-12.222,0.032-18.039-2.307c-1.011-0.405-1.438-0.938-1.445-2.097c-0.03-3.874-0.209-7.746-0.327-11.619
		C225.818,110.22,225.828,109.88,225.828,109.437z"/>
</g>
</svg>
