<?xml version="1.0" encoding="utf-8"?>
<!-- Generator: Adobe Illustrator 16.0.0, SVG Export Plug-In . SVG Version: 6.00 Build 0)  -->
<!DOCTYPE svg PUBLIC "-//W3C//DTD SVG 1.1//EN" "http://www.w3.org/Graphics/SVG/1.1/DTD/svg11.dtd">
<svg version="1.1" id="Layer_1" xmlns="http://www.w3.org/2000/svg" xmlns:xlink="http://www.w3.org/1999/xlink" x="0px" y="0px"
	 width="300px" height="200px" viewBox="0 0 300 200" enable-background="new 0 0 300 200" xml:space="preserve">
<g>
	<g>
		<polygon fill="#FFFFFF" points="53.261,88.932 45.804,116.145 39.331,116.32 39.906,121.03 65.642,120.195 77.2,86.357 		"/>
		<g>
			<path fill="#FFFFFF" d="M126.522,85.109c-0.664,2.333-1.506,5.365-2.103,7.716c-1.195,4.702-2.356,9.413-3.53,14.12l-0.609,2.771
				l-0.575-2.344c-1.856-7.209-3.909-15.119-5.761-22.329l-0.756,0c-2.038,0.035-4.077,0.047-6.116,0.026l-0.721-0.003
				c-0.579,2.154-1.419,5.007-1.995,7.162c-1.215,4.552-3.354,12.877-4.538,17.436c-1.469-5.582-4.581-18.391-6.092-23.963
				l-0.189-0.658l-0.686,0.019c-1.926,0.032-3.854,0.006-5.781,0.009l-0.725,0.002c3.227,10.547,6.444,21.097,9.649,31.575
				c2.5,0,4.929-0.015,7.357,0.011l0.556-0.005c0.39-1.483,1.002-3.65,1.382-5.136c1.32-5.16,2.631-10.322,3.938-15.485
				c0.232-0.914,0.429-1.836,0.641-2.754c0.414,1.131,0.566,2.263,0.86,3.356c1.741,6.461,3.699,13.574,5.452,20.031l0.687-0.001
				c2.038-0.032,4.079-0.056,6.116,0.001h0.983c2.169-7.236,4.667-15.389,6.864-22.617c0.892-2.931,1.774-5.864,2.716-8.977
				c-2.309,0-4.454-0.021-6.599,0.031L126.522,85.109z"/>
			<path fill="#FFFFFF" d="M145.988,103.221c0,3.741-0.001,8.866-0.005,12.608c0,0.248-0.021,0.495-0.033,0.784
				c-2.182,0-4.321,0-6.528,0c0-10.482,0-21.027,0-31.546h0.499c4.663,0.028,9.327,0.007,13.988,0.115
				c2.331,0.055,4.595,0.623,6.656,1.761c2.832,1.563,4.476,3.92,4.433,7.233c-0.044,3.31-1.638,5.789-4.534,7.275
				c-1.307,0.671-2.85,0.883-4.29,1.289c-0.252,0.07-0.522,0.071-0.898,0.119c4.732,3.948,7.967,9.162,12,13.805l-0.987-0.009
				c-2.15,0.004-5.033-0.021-7.185,0.009l-0.441-0.591c-2.158-2.911-4.28-5.854-6.554-8.674c-1.058-1.312-2.424-2.374-3.659-3.54
				C148.449,103.859,147.096,102.751,145.988,103.221z M154.28,98.84c2.118-0.293,3.509-2.183,3.656-4.413
				c0.143-2.169-0.784-3.528-2.993-4.376c0,0-0.217-0.1-0.508-0.183c-0.199-0.057-0.967-0.082-1.175-0.082h-7.28l0.001,0.384
				c-0.001,2.176,0.004,4.353,0.007,6.529v2.141H154.28z"/>
			<path fill="#FFFFFF" d="M234.335,85.958c-0.027,3.631,0.009,7.262-0.028,10.893c-0.009,0.736,0.195,0.962,0.933,0.956
				c4.078-0.03,8.156-0.029,12.233-0.003c0.673,0.004,0.776-0.281,0.771-0.854c-0.023-3.575-0.021-7.15-0.022-10.725l-0.013-1.171
				l6.828,0.025v1.993c0,9.553,0,19.105-0.003,28.658c0,0.273-0.021,0.547-0.036,0.873c-2.241,0-4.434,0-6.776,0
				c0-0.551,0.001-1.05,0-1.55c0-3.994-0.016-7.988,0.015-11.982c0.005-0.744-0.165-1.021-0.973-1.014
				c-4.022,0.041-8.044,0.035-12.066,0.003c-0.72-0.006-0.896,0.248-0.891,0.92c0.025,4.161,0.017,8.323,0.02,12.485
				c0.001,0.359,0.001,0.72,0.001,1.138c-2.263,0-4.449,0-6.737,0c0-0.614,0-1.194,0-1.772c0-9.581,0.013-19.162-0.02-28.742v-1.034
				h6.773L234.335,85.958z"/>
			<path fill="#FFFFFF" d="M217.878,114.836c-4.238,1.704-8.636,2.39-13.19,2.213c-3.019-0.118-5.948-0.595-8.638-2.034
				c-4.492-2.404-7.144-6.104-7.754-11.212c-0.401-3.354-0.203-6.652,1.145-9.78c1.764-4.09,4.963-6.74,9.08-8.144
				c5.961-2.031,11.87-1.603,17.601,1.023c0.623,0.285,1.192,0.685,1.662,0.959c-1.005,1.096-1.905,2.125-2.874,3.087l-0.336,0.335
				l-0.59-0.363c-3.152-1.661-6.462-2.414-10.025-1.911c-3.902,0.552-6.403,2.779-7.506,6.483
				c-1.029,3.456-1.064,6.988-0.292,10.523c0.842,3.846,3.245,6.05,7.071,6.753c2.621,0.482,5.215,0.433,7.778-0.398
				c0.565-0.184,0.811-0.418,0.802-1.044c-0.034-2.453-0.015-4.907-0.015-7.475c-0.347,0-0.614,0-0.883,0
				c-1.788-0.002-4.283-0.013-6.071-0.003l-0.136-0.682c-0.213-1.173-0.506-2.332-0.78-3.559c4.945,0,9.852,0.011,14.773,0.011
				l-0.002,0.824c0.007,4.358-0.006,9.651,0.025,14.009"/>
			<path fill="#FFFFFF" d="M261.238,89.489v-4.436h0.756c8.659,0.018,17.318,0.021,25.977,0.026c0.442,0,0.884,0,1.435,0
				l-0.819,4.375l-1.831,0.016c-2.374-0.002-4.749-0.002-7.123-0.003c-0.388,0-0.773,0-1.287,0c0,9.081,0,18.081,0,27.134
				c-2.319,0-4.512,0-6.805,0c0-9.03,0-18.04,0-27.134c-0.485,0-0.872,0-1.26,0c-2.737,0-5.475-0.016-8.212,0.016L261.238,89.489z"
				/>
			<path fill="#FFFFFF" d="M174.658,85.067c1.674,0.048,3.35,0.013,5.025,0.012c0.271,0,0.542,0,0.865,0c0,10.556,0,21.013,0,31.544
				c-2.315,0-4.542,0-6.865,0c0-0.634,0-1.239,0-1.844c0-9.578,0.009-19.156-0.02-28.734v-0.979L174.658,85.067z"/>
		</g>
	</g>
	<polygon fill="#FFFFFF" points="55.991,78.97 10.595,82.306 23.94,116.74 39.331,116.32 36.212,90.765 53.261,88.932 
		45.804,116.145 	"/>
</g>
</svg>
